…
``` r
show_dataset_collection()
#> Carregando pacotes exigidos: dplyr
#> 
#> Attaching package: 'dplyr'
#> The following objects are masked from 'package:stats':
#> 
#>     filter, lag
#> The following objects are masked from 'package:base':
#> 
#>     intersect, setdiff, setequal, union
#> To check the complete dataset information,
#> go to: https://maayanlab.cloud/Harmonizome/
#> # A tibble: 129 x 2
#>    Name                                                                    Code 
#>    <chr>                                                                   <chr>
#>  1 Achilles Cell Line Gene Essentiality Profiles                           achi~
#>  2 Allen Brain Atlas Adult Human Brain Tissue Gene Expression Profiles     brai~
#>  3 Allen Brain Atlas Adult Mouse Brain Tissue Gene Expression Profiles     brai~
#>  4 Allen Brain Atlas Developing Human Brain Tissue Gene Expression Profil~ brai~
#>  5 Allen Brain Atlas Developing Human Brain Tissue Gene Expression Profil~ brai~
#>  6 Allen Brain Atlas Prenatal Human Brain Tissue Gene Expression Profiles  brai~
#>  7 BIND Biomolecular Interactions                                          bind 
#>  8 BioGPS Cell Line Gene Expression Profiles                               biog~
#>  9 BioGPS Human Cell Type and Tissue Gene Expression Profiles              biog~
#> 10 BioGPS Mouse Cell Type and Tissue Gene Expression Profiles              biog~
#> # ... with 119 more rows
```
…
